%!PS-Adobe-3.0 EPSF-3.0
%%Creator: cairo 1.15.12 (http://cairographics.org)
%%CreationDate: Tue Jan 18 22:41:48 2022
%%Pages: 1
%%DocumentData: Clean7Bit
%%LanguageLevel: 2
%%BoundingBox: 0 0 779 782
%%EndComments
%%BeginProlog
50 dict begin
/q { gsave } bind def
/Q { grestore } bind def
/cm { 6 array astore concat } bind def
/w { setlinewidth } bind def
/J { setlinecap } bind def
/j { setlinejoin } bind def
/M { setmiterlimit } bind def
/d { setdash } bind def
/m { moveto } bind def
/l { lineto } bind def
/c { curveto } bind def
/h { closepath } bind def
/re { exch dup neg 3 1 roll 5 3 roll moveto 0 rlineto
      0 exch rlineto 0 rlineto closepath } bind def
/S { stroke } bind def
/f { fill } bind def
/f* { eofill } bind def
/n { newpath } bind def
/W { clip } bind def
/W* { eoclip } bind def
/BT { } bind def
/ET { } bind def
/BDC { mark 3 1 roll /BDC pdfmark } bind def
/EMC { mark /EMC pdfmark } bind def
/cairo_store_point { /cairo_point_y exch def /cairo_point_x exch def } def
/Tj { show currentpoint cairo_store_point } bind def
/TJ {
  {
    dup
    type /stringtype eq
    { show } { -0.001 mul 0 cairo_font_matrix dtransform rmoveto } ifelse
  } forall
  currentpoint cairo_store_point
} bind def
/cairo_selectfont { cairo_font_matrix aload pop pop pop 0 0 6 array astore
    cairo_font exch selectfont cairo_point_x cairo_point_y moveto } bind def
/Tf { pop /cairo_font exch def /cairo_font_matrix where
      { pop cairo_selectfont } if } bind def
/Td { matrix translate cairo_font_matrix matrix concatmatrix dup
      /cairo_font_matrix exch def dup 4 get exch 5 get cairo_store_point
      /cairo_font where { pop cairo_selectfont } if } bind def
/Tm { 2 copy 8 2 roll 6 array astore /cairo_font_matrix exch def
      cairo_store_point /cairo_font where { pop cairo_selectfont } if } bind def
/g { setgray } bind def
/rg { setrgbcolor } bind def
/d1 { setcachedevice } bind def
/cairo_data_source {
  CairoDataIndex CairoData length lt
    { CairoData CairoDataIndex get /CairoDataIndex CairoDataIndex 1 add def }
    { () } ifelse
} def
/cairo_flush_ascii85_file { cairo_ascii85_file status { cairo_ascii85_file flushfile } if } def
/cairo_image { image cairo_flush_ascii85_file } def
/cairo_imagemask { imagemask cairo_flush_ascii85_file } def
%%EndProlog
%%BeginSetup
%%EndSetup
%%Page: 1 1
%%BeginPageSetup
%%PageBoundingBox: 0 0 779 782
%%EndPageSetup
q 0 0 779 782 rectclip
1 0 0 -1 0 782 cm q
0 g
358 0.352 m 345.102 1.652 326.602 4.152 317.5 5.852 c 196.301 28.852 93.398
 107.152 39.398 217.25 c 19.602 257.652 8.102 296.152 1.801 342.75 c 0.398
 353.652 0 362.953 0 390.75 c 0 427.652 0.801 437.25 6.102 465.25 c 25.398
 566.352 84.801 656.75 170 714.652 c 221.5 749.652 277.602 770.75 341.5 
779.453 c 361 782.051 418 782.051 437.5 779.453 c 501.398 770.75 557.5 749.652
 609 714.652 c 694.199 656.75 753.602 566.352 772.898 465.25 c 778.199 437.25
 779 427.652 779 390.75 c 779 353.852 778.199 344.25 772.898 316.25 c 753.602
 215.152 694.199 124.75 609 66.852 c 557.801 32.152 502.398 11.051 438.5
 2.152 c 427.5 0.652 368.602 -0.648 358 0.352 c h
481.5 99.051 m 485.102 99.852 489.398 101.25 491 102.152 c 492.699 103.051
 494.5 103.75 495.199 103.75 c 495.898 103.75 496.898 104.652 497.5 105.852
 c 498.199 106.953 499.301 107.652 500 107.352 c 500.699 107.152 501.898
 107.551 502.5 108.352 c 503.199 109.152 504.398 109.75 505.102 109.75 c
 505.898 109.75 506.5 110.152 506.5 110.75 c 506.5 111.25 507.102 111.75
 507.898 111.75 c 508.699 111.75 510.301 113.051 511.5 114.75 c 512.699 
116.352 514.199 117.75 514.801 117.75 c 516.5 117.75 521.5 122.551 521.5
 124.152 c 521.5 124.953 522.602 125.852 524 126.152 c 526.699 126.852 530.898
 131.852 532 135.75 c 533.102 139.652 535.801 145.75 536.5 145.75 c 536.801
 145.75 537.102 147.652 537.102 149.953 c 537.199 152.352 537.301 157.852
 537.398 162.25 c 537.5 166.652 537.398 171.551 537.102 173.25 c 536.801
 174.852 536.398 177.75 536.102 179.652 c 535.801 181.453 535.102 183.453
 534.602 184.152 c 532.5 186.652 528.5 199.75 526.898 209.25 c 524.301 225.551
 520.801 239.453 510.5 274.25 c 503.699 297.453 499.801 311.352 498.398 
317.051 c 497.898 319.152 496.898 321.75 496.199 322.75 c 495.301 324.352
 495.301 325.152 496.301 326.75 c 497.301 328.352 497.199 329.453 495.898
 332.551 c 495.102 334.551 494.102 340.25 493.801 345.152 c 493.602 350.652
 492.699 355.25 491.699 357.152 c 490.801 358.852 490.199 360.75 490.301
 361.453 c 490.5 362.152 489.699 363.25 488.5 363.953 c 487.398 364.652 
486.5 365.75 486.5 366.453 c 486.5 367.152 486.102 367.75 485.602 367.75
 c 485.102 367.75 484.898 368.652 485.199 369.75 c 485.5 370.852 485.301
 371.75 484.699 371.75 c 484.199 371.75 483.199 373.051 482.699 374.652 
c 481.898 376.75 480.199 378.152 476.102 380.051 c 473 381.551 469.699 383.352
 468.898 384.25 c 468.102 385.051 466.398 385.75 465.199 385.75 c 463.898
 385.75 462 386.453 460.801 387.25 c 457.5 389.551 450.801 390.25 448.699
 388.551 c 446.801 386.953 440.699 383.75 439.398 383.75 c 438.5 383.75 
431.801 379.352 429.5 377.25 c 428.699 376.453 426.5 374.453 424.801 372.852
 c 423 371.152 421.5 369.551 421.5 369.352 c 421.5 369.051 419.898 367.152
 418 365.152 c 416.102 363.25 414.5 360.953 414.5 360.152 c 414.5 359.352
 413.898 358.453 413.102 358.152 c 412.301 357.852 410.5 355.25 409.102 
352.453 c 405.898 346.051 404.602 344.453 401.801 342.852 c 400.398 342.152
 399.801 341.152 400.199 340.152 c 400.602 339.152 398.699 336.551 394.699
 332.453 c 391.301 329.051 386.199 323.652 383.398 320.453 c 378.398 314.953
 378.301 314.652 380.102 313.25 c 381.102 312.453 382.801 311.75 383.801
 311.75 c 386.199 311.75 384.898 309.75 382.5 309.75 c 381.5 309.75 380.5
 309.051 380.102 308.25 c 379.699 307.051 380.699 306.75 386.102 306.75 
c 391.699 306.75 392.602 306.551 392.102 305.152 c 391.699 304.051 392 303.75
 393.301 304.152 c 394.199 304.352 399.301 304.75 404.5 304.953 c 413.199
 305.25 414.301 305.051 416.898 302.953 c 418.5 301.75 420.398 300.75 421.102
 300.75 c 423.102 300.75 433.398 293.453 434 291.551 c 434.301 290.652 436.102
 289.25 438 288.25 c 439.898 287.352 441.5 286.25 441.5 285.75 c 441.5 285.352
 443.102 282.551 445 279.652 c 446.898 276.652 448.5 273.453 448.5 272.453
 c 448.5 271.352 449.102 269.352 449.898 267.953 c 451.398 265.25 454 257.852
 455.5 252.25 c 455.898 250.551 458.898 240.453 462 229.75 c 467.801 209.75
 468.898 205.75 472.398 190.25 c 474.699 180.152 474.699 179.852 474.199
 166.75 c 473.898 160.051 473.199 156.051 471.898 153.25 c 470 149.352 469.801
 149.25 465.5 149.551 c 463.102 149.652 460.602 150.25 460 150.75 c 459.301
 151.352 456.898 151.953 454.602 152.25 c 451.5 152.652 450.301 152.453 
449.898 151.25 c 449.602 150.453 448.898 149.953 448.398 150.25 c 448 150.551
 446.699 150.25 445.602 149.551 c 444.102 148.652 443.102 148.652 441 149.551
 c 437.898 150.953 432.5 151.152 432.5 149.75 c 432.5 149.25 431.801 149.051
 431 149.352 c 430.199 149.75 429.5 150.652 429.5 151.551 c 429.5 152.75
 429.199 152.852 428.301 151.953 c 427 150.652 418.801 150.352 413.699 151.352
 c 409.602 152.152 408.699 154.852 409.199 164.453 c 409.5 170.551 409.199
 173.453 408 175.652 c 407.199 177.352 406.5 179.75 406.5 181.25 c 406.5
 182.652 406.102 183.75 405.602 183.75 c 405.102 183.75 404.398 185.051 
404 186.75 c 403.602 188.352 403 189.953 402.5 190.25 c 401.398 190.953 
398.5 196.652 398.5 198.25 c 398.5 198.852 397.199 200.652 395.699 202.352
 c 390.102 208.051 390.898 217.75 397 217.75 c 400.398 217.75 405.301 219.75
 405.898 221.352 c 406.199 222.152 407.5 222.75 408.801 222.75 c 410.199
 222.75 411.801 223.453 412.5 224.25 c 413.199 225.051 414.301 225.75 414.898
 225.75 c 418.898 225.75 426.301 236.75 425 240.852 c 424.602 241.953 424.898
 243.551 425.699 244.453 c 427.699 246.953 428.301 264.25 426.398 266.152
 c 425.898 266.75 425.5 268.352 425.5 269.75 c 425.5 272.75 419.801 278.75
 414.301 281.551 c 411.102 283.25 403 284.152 394.5 283.852 c 393.102 283.852
 390.898 283.75 389.602 283.75 c 388.301 283.75 386.5 283.152 385.602 282.352
 c 384.699 281.551 382 280.652 379.5 280.25 c 377 279.852 374.102 279.051
 373 278.453 c 370.398 277.152 366.699 276.652 363.398 277.352 c 360.699
 277.852 360.398 278.453 345 309.75 c 336.5 327.051 329.602 336.453 314 
352.25 c 305.801 360.652 297.398 368.25 295.5 369.25 c 293.602 370.25 290.398
 372.25 288.5 373.75 c 286.602 375.152 281.898 377.352 278 378.652 c 274.199
 379.852 269.301 381.953 267.301 383.352 c 263.301 385.953 261.5 386.352
 261.5 384.75 c 261.5 384.152 259.801 384.551 257.602 385.652 c 255.5 386.75
 253.5 387.453 253.199 387.152 c 252.898 386.852 250.301 387.75 247.5 389.152
 c 241.398 392.152 238.898 392.551 242.5 389.75 c 246.301 386.852 244.398
 386.453 238.102 388.75 c 235.102 389.953 232.102 390.652 231.5 390.25 c
 231 389.953 229.602 390.152 228.398 390.852 c 227.199 391.453 223.5 392.152
 220.301 392.352 c 217.102 392.551 213.5 393.25 212.398 393.852 c 211 394.551
 210 394.652 209.301 393.953 c 208.602 393.25 209.602 392.051 212.398 390.25
 c 214.602 388.75 216.5 387.25 216.5 387.051 c 216.5 386.051 213.602 383.75
 212.301 383.75 c 210.199 383.75 202.602 386.652 199.898 388.352 c 197.898
 389.75 197.5 389.75 197.5 388.551 c 197.5 387.75 198.898 386.453 200.699
 385.652 c 204.602 383.953 206 381.152 202.398 382.25 c 200.699 382.75 200.301
 382.652 201 381.953 c 201.602 381.352 202.699 380.75 203.398 380.551 c 
204.898 380.25 209.5 375.551 209.5 374.352 c 209.5 372.953 206.5 373.953
 202.398 376.75 c 197.898 379.75 194.398 380.953 198 378.152 c 199.102 377.352
 200 375.852 200 374.953 c 200 373.953 202.699 371.652 206.699 369.25 c 
210.898 366.75 213.898 364.152 214.699 362.453 c 215.398 360.953 219.199
 357.152 223.199 354.152 c 229.199 349.652 240.801 339.953 247.602 333.75
 c 248.5 332.953 250.699 331.152 252.602 329.75 c 260.898 323.551 268.898
 316.152 274 309.953 c 277.102 306.25 280.5 302.152 281.602 300.852 c 282.699
 299.551 284.102 297.551 284.699 296.352 c 285.301 295.25 286.102 294.051
 286.5 293.75 c 289.199 291.75 304.5 263.453 304.5 260.352 c 304.5 258.152
 299.801 257.551 282.5 257.25 c 274 257.152 265.199 256.551 263 255.953 
c 260.801 255.352 256.602 254.551 253.602 254.25 c 250.102 253.75 244.102
 251.551 236.801 247.953 c 226 242.652 225.602 242.352 227.102 240.551 c
 228.102 239.551 229.301 238.75 229.801 238.75 c 230.398 238.75 231.602 
238.051 232.5 237.25 c 234.602 235.352 244.199 231.75 247.102 231.75 c 248.199
 231.75 249.5 231.453 249.801 231.152 c 251.102 229.75 267.199 224.551 272.602
 223.75 c 275.699 223.25 280.199 222.352 282.602 221.852 c 285 221.352 292
 220.352 298 219.75 c 304.102 219.152 310.102 218.25 311.5 217.852 c 312.898
 217.352 315.801 216.453 318 215.75 c 322.801 214.25 329.102 206.75 331.602
 199.453 c 332.5 196.852 333 194.75 332.699 194.75 c 332.5 194.75 332.801
 194.152 333.398 193.352 c 335.301 191.051 338.398 180.453 338.199 176.453
 c 338.199 174.453 338 172.75 337.801 172.75 c 337.699 172.75 335.199 173.852
 332.301 175.152 c 324.801 178.453 317.898 185.25 317.102 190.051 c 316.699
 192.25 315.699 194.152 314.699 194.453 c 313.801 194.852 311.801 195.953
 310.301 197.051 c 307.102 199.453 294.5 202.051 292.898 200.652 c 292.301
 200.152 291.602 199.953 291.301 200.25 c 291 200.551 289.199 200.152 287.199
 199.25 c 285.301 198.453 282.199 197.75 280.301 197.652 c 274.801 197.453
 271 195.852 268 192.75 c 266.398 191.051 264.699 189.75 264.301 189.75 
c 262.699 189.75 253.5 183.352 253.5 182.25 c 253.5 181.152 250 177.75 248.898
 177.75 c 247.602 177.75 238.5 168.25 238.5 166.953 c 238.5 166.152 236.5
 163.25 234 160.453 c 231.5 157.551 229.5 154.453 229.5 153.551 c 229.5 
152.551 229 151.75 228.398 151.75 c 227.801 151.75 227.5 151.152 227.801
 150.352 c 228.102 149.652 226.801 146.75 224.898 143.953 c 221.199 138.453
 218 130.25 219 128.75 c 219.699 127.652 238.5 127.852 238.5 128.953 c 238.5
 129.453 242.102 129.75 246.398 129.75 c 252.301 129.75 258.5 128.75 270.199
 125.852 c 278.898 123.652 289.602 121.152 294 120.25 c 298.398 119.25 305.602
 117.75 310 116.75 c 314.398 115.75 318.5 115.352 319 115.75 c 319.602 116.25
 320.801 115.953 321.801 115.25 c 322.801 114.551 324.398 114.152 325.301
 114.453 c 326.301 114.652 330.699 113.953 335 112.75 c 343.5 110.453 344.898
 110.25 367.102 108.852 c 374.898 108.352 383.699 107.152 386.602 106.352
 c 396.801 103.352 414.398 101.652 420.801 102.953 c 424.602 103.652 426.898
 103.652 427.301 103.051 c 427.699 102.551 430 102.051 432.5 101.953 c 437.398
 101.852 438.102 101.652 446.699 99.852 c 449.898 99.152 453.301 98.852 
454.301 99.152 c 455.398 99.551 457.5 99.051 459.102 98.25 c 462.5 96.453
 471.398 96.75 481.5 99.051 c h
377.199 307.352 m 376.898 307.652 376 307.75 375.301 307.453 c 374.5 307.152
 374.801 306.852 375.898 306.852 c 377 306.75 377.602 307.051 377.199 307.352
 c h
568 390.152 m 570.199 390.953 573 391.352 574.199 391.051 c 575.5 390.75
 578.199 391.453 580.5 392.652 c 582.699 393.75 584.898 394.652 585.301 
394.551 c 587.102 394.051 596.301 396.152 599.5 397.75 c 601.398 398.75 
604.102 399.953 605.5 400.551 c 610.301 402.352 621.5 408.25 621.5 408.953
 c 621.5 409.453 622.301 409.75 623.398 409.75 c 624.398 409.75 626.398 
410.652 627.801 411.75 c 629.199 412.852 630.801 413.75 631.398 413.75 c
 632.398 413.75 641.398 419.551 642.5 420.852 c 643.102 421.551 647.801 
424.152 648.602 424.25 c 648.898 424.25 650.699 425.852 652.602 427.852 
c 654.5 429.852 657.699 432.75 659.801 434.25 c 661.801 435.75 663.5 437.453
 663.5 437.953 c 663.5 438.453 664.801 439.953 666.301 441.25 c 670.301 
444.551 674.398 452.852 673.801 456.152 c 673.5 457.652 673.898 459.75 674.898
 461.152 c 675.801 462.551 676.301 464.25 676 464.953 c 675.801 465.652 
675.398 467.953 675.199 470.051 c 674.801 473.652 672.602 476.852 668.102
 480.75 c 667.102 481.652 666.102 483.75 665.898 485.352 c 665.699 486.953
 664.699 488.852 663.5 489.652 c 662.398 490.352 661.5 491.652 661.5 492.352
 c 661.5 493.152 660.5 493.852 659.301 493.852 c 654.699 494.152 652.898
 494.453 651 495.453 c 649.898 496.051 646.801 496.551 644 496.652 c 641.301
 496.75 638.602 497.25 638.102 497.75 c 636.801 499.051 628.801 499.051 
628 497.75 c 627.699 497.152 626.301 496.75 625 496.75 c 623.699 496.75 
619.301 495.152 615.199 493.25 c 611.102 491.352 607.199 489.75 606.602 
489.75 c 606 489.75 605.5 489.152 605.5 488.453 c 605.5 487.152 599.199 
481.75 597.602 481.75 c 597 481.75 596 480.852 595.301 479.75 c 594.602 
478.652 593.602 477.75 593 477.75 c 591.5 477.75 584.5 471.352 584.5 470.051
 c 584.5 469.352 582.5 467.152 580 465.051 c 577.5 463.051 575.5 460.852
 575.5 460.152 c 575.5 458.551 572.398 455.953 569.301 455.25 c 567.602 
454.852 566.699 453.953 566.801 452.75 c 567 449.652 564.199 442.352 561.801
 440.051 c 560.5 438.852 559.5 437.25 559.5 436.453 c 559.5 434.352 556.602
 429.051 555.102 428.453 c 554.398 428.152 553 426.352 552.102 424.352 c
 551.199 422.352 549.801 420.75 549.102 420.75 c 547.199 420.75 543.5 416.953
 539.199 410.652 c 535 404.352 532.301 402.75 526.199 402.75 c 520.301 402.75
 518.801 401.453 522.801 399.953 c 524.602 399.25 528.699 397.352 532 395.75
 c 537.5 393.152 544.801 390.551 550 389.453 c 554.398 388.453 564.199 388.852
 568 390.152 c h
359.398 411.652 m 360.898 412.75 364.602 415.953 367.5 418.652 c 370.5 
421.453 373.699 423.75 374.699 423.75 c 376.398 423.75 379.301 424.852 388
 428.75 c 390.199 429.75 394 431.453 396.5 432.551 c 399 433.652 403.301
 435.652 406 436.852 c 410 438.75 413 439.25 421 439.453 c 426.5 439.551
 431.301 439.652 431.699 439.75 c 432 439.75 432.699 441.25 433 442.953 
c 433.398 444.75 434.301 446.953 435 447.75 c 435.699 448.551 437.102 451.652
 438 454.453 c 439 457.352 440.102 459.75 440.5 459.75 c 441.602 459.75 
444.699 473.152 444 475.051 c 443.602 475.852 443.801 477.551 444.5 478.652
 c 445.102 479.852 445.199 480.75 444.699 480.75 c 443.699 480.75 442.398
 485.25 441.801 490.75 c 441.398 495.352 438.801 500.152 436.102 501.352
 c 434.898 501.852 433.898 503.352 433.699 504.75 c 433.398 507.453 433 
507.75 424.5 511.852 c 417.801 515.152 407.102 515.852 403.199 513.25 c 
401.898 512.453 398.5 511.051 395.602 510.152 c 392.699 509.352 389.398 
507.551 388.301 506.152 c 387.102 504.852 385.801 503.75 385.301 503.75 
c 383.602 503.75 376.602 498.152 376.199 496.453 c 375.898 495.453 374.699
 494.352 373.602 494.051 c 372.398 493.75 371.5 492.852 371.5 492.051 c 
371.5 490.25 365.699 481.75 364.5 481.75 c 363.898 481.75 363.5 480.551 
363.5 478.953 c 363.5 477.453 362.699 474.852 361.699 473.25 c 360.699 471.551
 359.301 468.352 358.5 465.953 c 357.801 463.652 356.898 461.75 356.5 461.75
 c 356.102 461.75 355.801 460.352 355.699 458.652 c 355.699 456.852 355.102
 454.953 354.602 454.453 c 354 453.852 353.5 452.152 353.5 450.652 c 353.5
 449.25 352.602 445.852 351.398 443.25 c 348.602 436.953 347.898 427.152
 350.199 425.953 c 351.5 425.152 351.699 423.852 351.199 418.352 c 350.602
 412.051 350.699 411.652 352.801 410.75 c 356 409.453 356.398 409.551 359.398
 411.652 c h
251.5 418.75 m 252 418.75 252.5 419.152 252.5 419.652 c 252.5 420.152 254.699
 421.352 257.398 422.25 c 260.199 423.152 263.602 424.852 265.102 425.953
 c 266.602 427.152 268.5 428.152 269.398 428.25 c 270.301 428.25 273.602
 430.25 276.602 432.551 c 279.699 434.852 282.5 436.75 283 436.75 c 284.5
 436.75 295.199 448.551 296.898 452.25 c 299.199 457.152 303 473.152 304.398
 484.25 c 305.801 494.652 308.699 505.25 312 511.75 c 319.102 525.453 347.801
 545.051 371.5 552.25 c 374 552.953 378.5 554.551 381.5 555.652 c 389.102
 558.352 408.199 562.551 419 563.852 c 423.898 564.352 433.398 564.75 440
 564.652 c 446.602 564.551 453.199 564.551 454.801 564.551 c 456.301 564.652
 457.5 564.352 457.5 563.852 c 457.5 562.75 462.102 560.75 464.699 560.75
 c 467.301 560.75 471.5 556.852 471.5 554.25 c 471.5 553.152 472.199 550.953
 473 549.453 c 473.801 547.852 474.5 545.652 474.398 544.453 c 474.398 542.352
 475 539.051 477.5 527.75 c 479 520.852 479 495.25 477.602 491.352 c 476.602
 488.953 476.699 488.652 478.102 489.152 c 479.5 489.652 479.699 488.652
 479.398 479.852 c 479.102 472.551 479.398 469.652 480.398 468.352 c 481.602
 466.953 481.5 465.75 479.5 459.652 c 478.301 455.75 477.602 452.25 478 
451.953 c 478.398 451.551 479.699 452.551 481 454.152 c 483.301 457.051 
484.699 457.75 489.199 458.051 c 490.398 458.152 492.602 459.453 494.199
 460.852 c 498.301 464.75 500.801 465.75 505.898 465.75 c 510.602 465.75
 527.5 471.652 530.602 474.352 c 531.398 475.152 532.602 475.75 533.199 
475.75 c 533.801 475.75 536 477.953 538 480.75 c 540 483.453 542.102 485.75
 542.602 485.75 c 543.102 485.75 543.5 486.25 543.5 486.75 c 543.5 487.352
 545.199 490.152 547.301 493.051 c 549.5 495.953 551.898 499.953 552.898
 501.953 c 553.801 504.051 555 505.75 555.602 505.75 c 556.199 505.75 557.301
 507.453 558.199 509.453 c 559 511.551 560.301 513.652 561 514.25 c 561.699
 514.75 562.602 516.852 562.898 518.75 c 563.398 521.652 564.102 522.551
 566.699 523.25 c 569.102 524.051 570.102 525.051 570.699 527.453 c 571.398
 530.25 573.5 532.551 580.301 537.551 c 581.5 538.453 584.5 541.051 586.801
 543.25 c 589.102 545.453 592.301 548.25 593.801 549.453 c 595.5 550.852
 596.5 552.75 596.5 554.352 c 596.5 555.75 596.898 557.652 597.398 558.652
 c 598 559.652 598.602 563.551 598.898 567.352 c 599.102 571.152 599.699
 575.051 600 576.051 c 600.398 576.953 600.102 579.453 599.199 581.551 c
 598.398 583.551 598 585.852 598.199 586.551 c 598.5 587.25 597.898 588.75
 597 589.75 c 596.102 590.75 595.102 593.453 594.801 595.75 c 594.301 599.25
 592.898 601.152 585.602 608.75 c 578.699 615.852 576.102 617.852 572.699
 618.75 c 570.301 619.352 566.898 620.75 565.199 621.852 c 562.801 623.25
 560.199 623.75 555 623.75 c 551.102 623.75 545.398 624.453 542.199 625.25
 c 539.102 626.051 532.801 626.75 528.301 626.75 c 523.699 626.852 518.898
 626.953 517.5 626.953 c 516.102 626.953 512.398 626.551 509.301 626.051
 c 506.199 625.551 503.102 625.453 502.301 625.852 c 501.602 626.25 497.398
 625.953 493.102 625.25 c 488.699 624.453 484.898 623.953 484.602 623.953
 c 484.301 624.051 482.898 623.852 481.5 623.551 c 473.5 621.652 464.398
 620.652 452.5 620.25 c 436.102 619.75 425.301 618.75 424 617.75 c 423.5
 617.352 420.102 616.652 416.5 616.25 c 409.5 615.551 397.102 613.352 391.5
 611.852 c 385.602 610.25 359.5 601.051 356.102 599.453 c 354.398 598.551
 350.801 597.051 348.102 596.051 c 345.301 595.152 340.301 592.453 336.898
 590.051 c 333.5 587.75 328.5 584.652 325.801 583.152 c 323.199 581.75 320.602
 579.953 320 579.352 c 319.5 578.652 315.898 575.75 312 572.852 c 292.301
 557.75 273.199 533.25 265.602 513.25 c 264.301 509.953 262.898 506.352 
262.398 505.25 c 260.898 501.652 255.699 482.352 254.5 475.953 c 253.898
 472.25 252 467.25 250 463.852 c 248.102 460.551 246.5 457.25 246.5 456.453
 c 246.5 455.652 245.801 454.453 245 453.75 c 244.199 453.051 243.5 451.75
 243.5 450.75 c 243.5 449.75 242.801 448.453 242 447.75 c 240.301 446.352
 237.5 441.051 237.5 439.25 c 237.5 438.551 236.801 437.453 235.898 436.75
 c 235.102 435.953 232.801 431.953 230.801 427.852 c 228.898 423.652 226.898
 420.051 226.398 419.953 c 225.898 419.75 225 418.75 224.5 417.75 c 223.602
 416.051 224.199 415.953 232.699 415.852 c 237.699 415.75 242 415.551 242.199
 415.352 c 242.398 415.152 244.398 415.852 246.5 416.852 c 248.602 417.953
 250.898 418.75 251.5 418.75 c h
201.398 436.352 m 202.602 437.852 203.5 439.551 203.5 440.352 c 203.5 441.051
 203.801 441.75 204.301 441.953 c 204.699 442.051 206.301 444.25 208 446.75
 c 209.602 449.25 211.398 451.551 211.801 451.852 c 212.5 452.352 214.5 
460.25 216 468.25 c 216.301 469.352 217.898 475.652 219.602 482.25 c 222.801
 493.953 222.898 494.75 222.801 514.75 c 222.801 530.852 222.398 536.652
 221.102 541.75 c 220.102 545.352 219.199 552.75 218.898 558.25 c 218.602
 563.75 217.898 571.352 217.301 575.25 c 215.898 583.852 215.699 588.75 
216.602 595.152 c 217 598.453 216.801 600.852 215.898 602.652 c 215.102 
604.051 214.5 605.852 214.5 606.551 c 214.5 609.852 207.199 619.75 204.801
 619.75 c 204.398 619.75 202.699 620.551 201 621.453 c 199.102 622.551 194.801
 623.25 189 623.551 c 171.699 624.352 171.102 624.25 167.5 620.551 c 166.102
 619.051 163.801 617.652 162.301 617.25 c 159.398 616.551 151.5 609.152 
151.5 607.051 c 151.5 606.352 150.602 605.75 149.5 605.75 c 148.199 605.75
 147.5 605.051 147.5 603.852 c 147.5 602.75 147.102 601.652 146.602 601.352
 c 144.801 600.152 143.699 588.352 144 571.25 c 144.199 561.352 144.602 
551.852 144.898 550.25 c 145.301 548.551 145.801 545.852 146 544.25 c 147.102
 537.652 149.199 532.051 151.801 529.352 c 153.301 527.75 154.5 525.953 
154.5 525.352 c 154.5 524.652 155.801 522.652 157.5 520.75 c 159.102 518.852
 160.398 516.453 160.5 515.551 c 160.5 514.551 161.398 513.352 162.602 512.75
 c 165.199 511.25 168.5 508.051 168.5 506.852 c 168.5 506.25 169.699 505.25
 171.102 504.551 c 173.898 503.25 180.199 490.551 184 478.75 c 184.898 475.75
 186.102 472.551 186.5 471.75 c 186.898 470.953 188.398 466.152 189.898 
461.25 c 191.398 456.25 193.301 450.453 194.102 448.25 c 194.801 446.051
 195.898 441.852 196.602 438.953 c 197.199 436.152 198 433.75 198.5 433.75
 c 199 433.75 200.301 434.953 201.398 436.352 c h
201.398 436.352 m f
Q Q
showpage
%%Trailer
end
%%EOF
